{"count":2127,"page":1,"first":1,"last":30,"hits":30,"carrier":0,"pageCount":71,"Items":[{"title":"発達障害のわたしのこころの声","titleKana":"ハッタツショウガイノワタシノココロノコエ","subTitle":"","subTitleKana":"","seriesName":"","seriesNameKana":"","contents":"","author":"星野あゆみ","authorKana":"ホシノアユミ","publisherName":"学研マーケティング","size":"単行本","isbn":"9784054061866","itemCaption":"","salesDate":"2015年07月28日","itemPrice":1728,"listPrice":0,"discountRate":0,"discountPrice":0,"itemUrl":"http://books.rakuten.co.jp/rb/13306527/","affiliateUrl":"","smallImageUrl":"http://thumbnail.image.rakuten.co.jp/@0_mall/book/cabinet/noimage_01.gif?_ex=64x64","mediumImageUrl":"http://thumbnail.image.rakuten.co.jp/@0_mall/book/cabinet/noimage_01.gif?_ex=120x120","largeImageUrl":"http://thumbnail.image.rakuten.co.jp/@0_mall/book/cabinet/noimage_01.gif?_ex=200x200","chirayomiUrl":"","availability":"5","postageFlag":1,"limitedFlag":0,"reviewCount":0,"reviewAverage":"0.0","booksGenreId":"001015"},{"title":"YUCARI vol.21　禅のこころ","titleKana":"ユカリ　ヴォリューム21　ゼンノココロ","subTitle":"","subTitleKana":"","seriesName":"","seriesNameKana":"","contents":"","author":"マガジンハウス","authorKana":"マガジンハウス","publisherName":"マガジンハウス","size":"ムックその他","isbn":"9784838750238","itemCaption":"","salesDate":"2015年07月21日","itemPrice":699,"listPrice":0,"discountRate":0,"discountPrice":0,"itemUrl":"http://books.rakuten.co.jp/rb/13296957/","affiliateUrl":"","smallImageUrl":"http://thumbnail.image.rakuten.co.jp/@0_mall/book/cabinet/noimage_01.gif?_ex=64x64","mediumImageUrl":"http://thumbnail.image.rakuten.co.jp/@0_mall/book/cabinet/noimage_01.gif?_ex=120x120","largeImageUrl":"http://thumbnail.image.rakuten.co.jp/@0_mall/book/cabinet/noimage_01.gif?_ex=200x200","chirayomiUrl":"","availability":"5","postageFlag":0,"limitedFlag":0,"reviewCount":0,"reviewAverage":"0.0","booksGenreId":"001015"},{"title":"平常心　なにがあっても折れないこころの育て方","titleKana":"ヘイジョウシン","subTitle":"なにがあっても折れないこころの育て方","subTitleKana":"ナニ ガ アッテモ オレナイ ココロ ノ ソダテカタ","seriesName":"","seriesNameKana":"","contents":"","author":"保坂隆","authorKana":"ホサカ,タカシ","publisherName":"実務教育出版","size":"単行本","isbn":"9784788911437","itemCaption":"「がんばろう」を禁句にしてみる。「忘れる力」があなたを強くする。「負ける」練習をしてみる。「失敗」は「積み重ね」と言い換える。「〜しなければならない」は全部やめてみる。「いやなこと」からは逃げていい。","salesDate":"2015年06月05日","itemPrice":1296,"listPrice":0,"discountRate":0,"discountPrice":0,"itemUrl":"http://books.rakuten.co.jp/rb/13215920/","affiliateUrl":"","smallImageUrl":"http://thumbnail.image.rakuten.co.jp/@0_mall/book/cabinet/1437/9784788911437.jpg?_ex=64x64","mediumImageUrl":"http://thumbnail.image.rakuten.co.jp/@0_mall/book/cabinet/1437/9784788911437.jpg?_ex=120x120","largeImageUrl":"http://thumbnail.image.rakuten.co.jp/@0_mall/book/cabinet/1437/9784788911437.jpg?_ex=200x200","chirayomiUrl":"","availability":"1","postageFlag":0,"limitedFlag":0,"reviewCount":0,"reviewAverage":"0.0","booksGenreId":"001008003002/001010010001/001010010002/001012009002/001012009006"},{"title":"My　Organic　Note","titleKana":"マイ オーガニック ノート","subTitle":"心地いい暮らしで変わる、こころとからだ","subTitleKana":"ココチイイ クラシ デ カワル ココロ ト カラダ","seriesName":"正しく暮らすシリーズ","seriesNameKana":"タダシク クラス シリーズ","contents":"","author":"神田恵実","authorKana":"カンダ,エミ","publisherName":"ワニブックス","size":"単行本","isbn":"9784847093586","itemCaption":"人生を変えていく、生き方、食べ方、選び方。人気オーガニックコットンブランド『ｎａｎａｄｅｃｏｒ』神田恵実の中からキレイになれる、“とり入れたい”４５のヒント。","salesDate":"2015年07月","itemPrice":1620,"listPrice":0,"discountRate":0,"discountPrice":0,"itemUrl":"http://books.rakuten.co.jp/rb/13280239/","affiliateUrl":"","smallImageUrl":"http://thumbnail.image.rakuten.co.jp/@0_mall/book/cabinet/3586/9784847093586.jpg?_ex=64x64","mediumImageUrl":"http://thumbnail.image.rakuten.co.jp/@0_mall/book/cabinet/3586/9784847093586.jpg?_ex=120x120","largeImageUrl":"http://thumbnail.image.rakuten.co.jp/@0_mall/book/cabinet/3586/9784847093586.jpg?_ex=200x200","chirayomiUrl":"","availability":"1","postageFlag":1,"limitedFlag":0,"reviewCount":1,"reviewAverage":"5.0","booksGenreId":"001010006005/001010011010"},{"title":"寿司のこころ","titleKana":"スシ ノ ココロ","subTitle":"寿司とは何か、その答えがここにある。","subTitleKana":"スシ トワ ナニカ ソノ コタエ ガ ココニ アル","seriesName":"エイムック","seriesNameKana":"エイ ムック","contents":"","author":"","authorKana":"","publisherName":"エイ出版社","size":"ムックその他","isbn":"9784777936779","itemCaption":"","salesDate":"2015年06月","itemPrice":1026,"listPrice":0,"discountRate":0,"discountPrice":0,"itemUrl":"http://books.rakuten.co.jp/rb/13296261/","affiliateUrl":"","smallImageUrl":"http://thumbnail.image.rakuten.co.jp/@0_mall/book/cabinet/6779/9784777936779.jpg?_ex=64x64","mediumImageUrl":"http://thumbnail.image.rakuten.co.jp/@0_mall/book/cabinet/6779/9784777936779.jpg?_ex=120x120","largeImageUrl":"http://thumbnail.image.rakuten.co.jp/@0_mall/book/cabinet/6779/9784777936779.jpg?_ex=200x200","chirayomiUrl":"","availability":"1","postageFlag":0,"limitedFlag":0,"reviewCount":0,"reviewAverage":"0.0","booksGenreId":"001010011001"},{"title":"こころの科学（182）","titleKana":"ココロ ノ カガク","subTitle":"","subTitleKana":"","seriesName":"","seriesNameKana":"","contents":"特別企画：依存と嗜癖","author":"青木省三/宮岡等","authorKana":"アオキ,ショウゾウ/ミヤオカ,ヒトシ","publisherName":"日本評論社","size":"ムックその他","isbn":"9784535140820","itemCaption":"","salesDate":"2015年06月","itemPrice":1328,"listPrice":0,"discountRate":0,"discountPrice":0,"itemUrl":"http://books.rakuten.co.jp/rb/13291071/","affiliateUrl":"","smallImageUrl":"http://thumbnail.image.rakuten.co.jp/@0_mall/book/cabinet/0820/9784535140820.jpg?_ex=64x64","mediumImageUrl":"http://thumbnail.image.rakuten.co.jp/@0_mall/book/cabinet/0820/9784535140820.jpg?_ex=120x120","largeImageUrl":"http://thumbnail.image.rakuten.co.jp/@0_mall/book/cabinet/0820/9784535140820.jpg?_ex=200x200","chirayomiUrl":"","availability":"1","postageFlag":0,"limitedFlag":0,"reviewCount":0,"reviewAverage":"0.0","booksGenreId":"001010010001/001012009002"},{"title":"ちいさい・おおきい・よわい・つよい（no．106）","titleKana":"チイサイ オオキイ ヨワイ ツヨイ","subTitle":"こども・からだ・こころBOOK","subTitleKana":"コドモ カラダ ココロ ブック","seriesName":"","seriesNameKana":"","contents":"スマホ・ネット依存！？","author":"桜井智恵子/毛利子来","authorKana":"サクライ,チエコ/モウリ,タネキ","publisherName":"ジャパンマシニスト社","size":"単行本","isbn":"9784880499062","itemCaption":"","salesDate":"2015年06月","itemPrice":1296,"listPrice":0,"discountRate":0,"discountPrice":0,"itemUrl":"http://books.rakuten.co.jp/rb/13285734/","affiliateUrl":"","smallImageUrl":"http://thumbnail.image.rakuten.co.jp/@0_mall/book/cabinet/9062/9784880499062.jpg?_ex=64x64","mediumImageUrl":"http://thumbnail.image.rakuten.co.jp/@0_mall/book/cabinet/9062/9784880499062.jpg?_ex=120x120","largeImageUrl":"http://thumbnail.image.rakuten.co.jp/@0_mall/book/cabinet/9062/9784880499062.jpg?_ex=200x200","chirayomiUrl":"","availability":"6","postageFlag":0,"limitedFlag":0,"reviewCount":0,"reviewAverage":"0.0","booksGenreId":"001010002001"},{"title":"こころのスキルアップ教育の理論と実践","titleKana":"ココロ ノ スキル アップ キョウイク ノ リロン ト ジッセン","subTitle":"しなやかなこころをはぐくむ","subTitleKana":"シナヤカナ ココロ オ ハグクム","seriesName":"","seriesNameKana":"","contents":"","author":"大野裕（精神科医）/中野有美","authorKana":"オオノ,ユタカ/ナカノ,ユミ","publisherName":"大修館書店","size":"単行本","isbn":"9784469267716","itemCaption":"「認知行動療法」を学校で活用。教室（授業および日常生活）で、保健室で、相談室で子どもたちの「こころの力」を引き出し、はぐくむためのエッセンスが盛り込まれている。","salesDate":"2015年02月07日","itemPrice":2592,"listPrice":0,"discountRate":0,"discountPrice":0,"itemUrl":"http://books.rakuten.co.jp/rb/13092061/","affiliateUrl":"","smallImageUrl":"http://thumbnail.image.rakuten.co.jp/@0_mall/book/cabinet/7716/9784469267716.jpg?_ex=64x64","mediumImageUrl":"http://thumbnail.image.rakuten.co.jp/@0_mall/book/cabinet/7716/9784469267716.jpg?_ex=120x120","largeImageUrl":"http://thumbnail.image.rakuten.co.jp/@0_mall/book/cabinet/7716/9784469267716.jpg?_ex=200x200","chirayomiUrl":"","availability":"1","postageFlag":1,"limitedFlag":0,"reviewCount":0,"reviewAverage":"0.0","booksGenreId":"001008012011"},{"title":"こころ（vol．25（2015））","titleKana":"ココロ","subTitle":"","subTitleKana":"","seriesName":"","seriesNameKana":"","contents":"村田喜代子八幡炎炎記第二部スタート！","author":"","authorKana":"","publisherName":"平凡社","size":"単行本","isbn":"9784582380255","itemCaption":"","salesDate":"2015年06月12日","itemPrice":864,"listPrice":0,"discountRate":0,"discountPrice":0,"itemUrl":"http://books.rakuten.co.jp/rb/13231792/","affiliateUrl":"","smallImageUrl":"http://thumbnail.image.rakuten.co.jp/@0_mall/book/cabinet/0255/9784582380255.jpg?_ex=64x64","mediumImageUrl":"http://thumbnail.image.rakuten.co.jp/@0_mall/book/cabinet/0255/9784582380255.jpg?_ex=120x120","largeImageUrl":"http://thumbnail.image.rakuten.co.jp/@0_mall/book/cabinet/0255/9784582380255.jpg?_ex=200x200","chirayomiUrl":"","availability":"1","postageFlag":0,"limitedFlag":0,"reviewCount":0,"reviewAverage":"0.0","booksGenreId":"001008022008"},{"title":"スタンフォードの花嫁日本の農家のこころに学ぶ","titleKana":"スタンフォードノハナヨメ ニホンノノウカノココロニマナブ","subTitle":"日本の農家の嫁さんになるのってどう？","subTitleKana":"ニホンノノウカノヨメサンニナルノッテ ドウ","seriesName":"","seriesNameKana":"","contents":"","author":"ナンシー八須","authorKana":"ナンシーハチス","publisherName":"日本文芸社","size":"単行本","isbn":"9784537261189","itemCaption":"","salesDate":"2015年06月","itemPrice":1836,"listPrice":0,"discountRate":0,"discountPrice":0,"itemUrl":"http://books.rakuten.co.jp/rb/13229525/","affiliateUrl":"","smallImageUrl":"http://thumbnail.image.rakuten.co.jp/@0_mall/book/cabinet/noimage_01.gif?_ex=64x64","mediumImageUrl":"http://thumbnail.image.rakuten.co.jp/@0_mall/book/cabinet/noimage_01.gif?_ex=120x120","largeImageUrl":"http://thumbnail.image.rakuten.co.jp/@0_mall/book/cabinet/noimage_01.gif?_ex=200x200","chirayomiUrl":"","availability":"5","postageFlag":1,"limitedFlag":0,"reviewCount":0,"reviewAverage":"0.0","booksGenreId":"001010013003"},{"title":"おしえてブッダせんせいこころのふしぎ","titleKana":"オシエテ ブッダ センセイ ココロ ノ フシギ","subTitle":"心を育てるこども仏教塾","subTitleKana":"ココロ オ ソダテル コドモ ブッキョウジュク","seriesName":"","seriesNameKana":"","contents":"","author":"宮下真/まつおかたかこ","authorKana":"ミヤシタ,マコト/マツオカ,タカコ","publisherName":"永岡書店","size":"単行本","isbn":"9784522433416","itemCaption":"","salesDate":"2015年05月","itemPrice":1188,"listPrice":0,"discountRate":0,"discountPrice":0,"itemUrl":"http://books.rakuten.co.jp/rb/13250770/","affiliateUrl":"","smallImageUrl":"http://thumbnail.image.rakuten.co.jp/@0_mall/book/cabinet/3416/9784522433416.jpg?_ex=64x64","mediumImageUrl":"http://thumbnail.image.rakuten.co.jp/@0_mall/book/cabinet/3416/9784522433416.jpg?_ex=120x120","largeImageUrl":"http://thumbnail.image.rakuten.co.jp/@0_mall/book/cabinet/3416/9784522433416.jpg?_ex=200x200","chirayomiUrl":"","availability":"1","postageFlag":0,"limitedFlag":0,"reviewCount":0,"reviewAverage":"0.0","booksGenreId":"001003001001"},{"title":"不登校ひきこもりこころの道案内","titleKana":"フトウコウ ヒキコモリ ココロ ノ ミチアンナイ","subTitle":"今日からできる具体的対応法","subTitleKana":"キョウ カラ デキル グタイテキ タイオウホウ","seriesName":"","seriesNameKana":"","contents":"","author":"金馬宗昭","authorKana":"キンバ,ムネアキ","publisherName":"学びリンク","size":"単行本","isbn":"9784902776959","itemCaption":"立ち止まっている若者を、幸せに導く道案内です。「人生は１ラウンドで終わりではありません」２０代に挫折とひきこもりを経験し、その後不登校の子どもたちを導いてきた元教頭先生が伝えてきたこと。","salesDate":"2015年07月08日","itemPrice":1728,"listPrice":0,"discountRate":0,"discountPrice":0,"itemUrl":"http://books.rakuten.co.jp/rb/13238767/","affiliateUrl":"","smallImageUrl":"http://thumbnail.image.rakuten.co.jp/@0_mall/book/cabinet/6959/9784902776959.jpg?_ex=64x64","mediumImageUrl":"http://thumbnail.image.rakuten.co.jp/@0_mall/book/cabinet/6959/9784902776959.jpg?_ex=120x120","largeImageUrl":"http://thumbnail.image.rakuten.co.jp/@0_mall/book/cabinet/6959/9784902776959.jpg?_ex=200x200","chirayomiUrl":"","availability":"2","postageFlag":1,"limitedFlag":0,"reviewCount":0,"reviewAverage":"0.0","booksGenreId":"001008012011"},{"title":"あせらずあわてずあるがまま","titleKana":"アセラズ アワテズ アルガママ","subTitle":"子育てに活かす仏さまのこころ","subTitleKana":"コソダテ ニ イカス ホトケサマ ノ ココロ","seriesName":"","seriesNameKana":"","contents":"","author":"大平光代/友久久雄","authorKana":"オオヒラ,ミツヨ/トモヒサ,ヒサオ","publisherName":"本願寺出版社","size":"単行本","isbn":"9784894160798","itemCaption":"仏教の視点で元気になる、新感覚の教育対談。障がい受容、スクールカウンセリング、いじめのこと、手を合わせる経験…二人でじっくり話し合ってみました。","salesDate":"2015年06月","itemPrice":1080,"listPrice":0,"discountRate":0,"discountPrice":0,"itemUrl":"http://books.rakuten.co.jp/rb/13255848/","affiliateUrl":"","smallImageUrl":"http://thumbnail.image.rakuten.co.jp/@0_mall/book/cabinet/0798/9784894160798.jpg?_ex=64x64","mediumImageUrl":"http://thumbnail.image.rakuten.co.jp/@0_mall/book/cabinet/0798/9784894160798.jpg?_ex=120x120","largeImageUrl":"http://thumbnail.image.rakuten.co.jp/@0_mall/book/cabinet/0798/9784894160798.jpg?_ex=200x200","chirayomiUrl":"","availability":"1","postageFlag":0,"limitedFlag":0,"reviewCount":0,"reviewAverage":"0.0","booksGenreId":"001008012002"},{"title":"日本の大和言葉を美しく話す","titleKana":"ニホン ノ ヤマト コトバ オ ウツクシク ハナス","subTitle":"こころが通じる和の表現","subTitleKana":"ココロ ガ ツウジル ワ ノ ヒョウゲン","seriesName":"","seriesNameKana":"","contents":"","author":"高橋こうじ","authorKana":"タカハシ,コウジ","publisherName":"東邦出版","size":"単行本","isbn":"9784809412677","itemCaption":"日本には漢語と外来語、そして生粋の日本語「大和言葉」大きくわけてこの三つがあります。日本人自身が育んできた知的で優雅な余韻を残す言葉づかいを身につけてみませんか？","salesDate":"2014年12月","itemPrice":1512,"listPrice":0,"discountRate":0,"discountPrice":0,"itemUrl":"http://books.rakuten.co.jp/rb/13027479/","affiliateUrl":"","smallImageUrl":"http://thumbnail.image.rakuten.co.jp/@0_mall/book/cabinet/2677/9784809412677.jpg?_ex=64x64","mediumImageUrl":"http://thumbnail.image.rakuten.co.jp/@0_mall/book/cabinet/2677/9784809412677.jpg?_ex=120x120","largeImageUrl":"http://thumbnail.image.rakuten.co.jp/@0_mall/book/cabinet/2677/9784809412677.jpg?_ex=200x200","chirayomiUrl":"","availability":"1","postageFlag":1,"limitedFlag":0,"reviewCount":42,"reviewAverage":"4.26","booksGenreId":"001002001001"},{"title":"ピュア・バランス","titleKana":"ピュア バランス","subTitle":"《こころ》を100％《宇宙の愛》に空け渡したときに","subTitleKana":"ココロ オ ヒャクパーセント ウチュウ ノ アイ ニ アケワタシタ","seriesName":"","seriesNameKana":"","contents":"","author":"宮崎ますみ","authorKana":"ミヤザキ,マスミ","publisherName":"ヒカルランド","size":"単行本","isbn":"9784864712842","itemCaption":"あなたの「思い込み」が変わると、引き寄せる現実が変わってくる！手に取るだけで「内なる癒し」がはじまる本。","salesDate":"2015年06月","itemPrice":1999,"listPrice":0,"discountRate":0,"discountPrice":0,"itemUrl":"http://books.rakuten.co.jp/rb/13273599/","affiliateUrl":"","smallImageUrl":"http://thumbnail.image.rakuten.co.jp/@0_mall/book/cabinet/2842/9784864712842.jpg?_ex=64x64","mediumImageUrl":"http://thumbnail.image.rakuten.co.jp/@0_mall/book/cabinet/2842/9784864712842.jpg?_ex=120x120","largeImageUrl":"http://thumbnail.image.rakuten.co.jp/@0_mall/book/cabinet/2842/9784864712842.jpg?_ex=200x200","chirayomiUrl":"","availability":"1","postageFlag":1,"limitedFlag":0,"reviewCount":0,"reviewAverage":"0.0","booksGenreId":"001008003003"},{"title":"「弱さ」の向こうにあるもの","titleKana":"ヨワサ ノ ムコウ ニ アルモノ","subTitle":"イエスの姿と福祉のこころ","subTitleKana":"イエス ノ スガタ ト フクシ ノ ココロ","seriesName":"","seriesNameKana":"","contents":"","author":"木原活信","authorKana":"キハラ,カツノブ","publisherName":"いのちのことば社","size":"単行本","isbn":"9784264033530","itemCaption":"","salesDate":"2015年07月","itemPrice":1728,"listPrice":0,"discountRate":0,"discountPrice":0,"itemUrl":"http://books.rakuten.co.jp/rb/13291013/","affiliateUrl":"","smallImageUrl":"http://thumbnail.image.rakuten.co.jp/@0_mall/book/cabinet/3530/9784264033530.jpg?_ex=64x64","mediumImageUrl":"http://thumbnail.image.rakuten.co.jp/@0_mall/book/cabinet/3530/9784264033530.jpg?_ex=120x120","largeImageUrl":"http://thumbnail.image.rakuten.co.jp/@0_mall/book/cabinet/3530/9784264033530.jpg?_ex=200x200","chirayomiUrl":"","availability":"1","postageFlag":1,"limitedFlag":0,"reviewCount":0,"reviewAverage":"0.0","booksGenreId":"001015"},{"title":"本居宣長","titleKana":"モトオリ ノリナガ","subTitle":"日本人のこころの言葉","subTitleKana":"ニホンジン ノ ココロ ノ コトバ","seriesName":"","seriesNameKana":"","contents":"","author":"吉田悦之","authorKana":"ヨシダ,ヨシユキ","publisherName":"創元社（大阪）","size":"全集・双書","isbn":"9784422800684","itemCaption":"“物のあわれ”とは何か。日本とはどういう国か。心を大切にした思索者の思考の軌跡。","salesDate":"2015年05月12日","itemPrice":1296,"listPrice":0,"discountRate":0,"discountPrice":0,"itemUrl":"http://books.rakuten.co.jp/rb/13194292/","affiliateUrl":"","smallImageUrl":"http://thumbnail.image.rakuten.co.jp/@0_mall/book/cabinet/0684/9784422800684.jpg?_ex=64x64","mediumImageUrl":"http://thumbnail.image.rakuten.co.jp/@0_mall/book/cabinet/0684/9784422800684.jpg?_ex=120x120","largeImageUrl":"http://thumbnail.image.rakuten.co.jp/@0_mall/book/cabinet/0684/9784422800684.jpg?_ex=200x200","chirayomiUrl":"","availability":"1","postageFlag":0,"limitedFlag":0,"reviewCount":0,"reviewAverage":"0.0","booksGenreId":"001008002002"},{"title":"99のなみだ（第4夜）ポケット版","titleKana":"クジュウク ノ ナミダ","subTitle":"本当にあったこころを癒す10の物語","subTitleKana":"ホントウ ニ アッタ ココロ オ イヤス ジュウ ノ モノガタリ","seriesName":"リンダパブリッシャーズの本","seriesNameKana":"リンダ パブリッシャーズ ノ ホン","contents":"","author":"リンダパブリッシャーズ","authorKana":"リンダ パブリッシャーズ","publisherName":"泰文堂（東京）","size":"文庫","isbn":"9784803007350","itemCaption":"叶わぬ未来を語る二人が切ない「ルビーの指輪」。教えることの歓びを全身で感じた「ハーモニー」。『９９のなみだ』シリーズに寄せられた読者の感動的な実話を集めた短篇小説集。","salesDate":"2015年06月","itemPrice":616,"listPrice":0,"discountRate":0,"discountPrice":0,"itemUrl":"http://books.rakuten.co.jp/rb/13248779/","affiliateUrl":"","smallImageUrl":"http://thumbnail.image.rakuten.co.jp/@0_mall/book/cabinet/7350/9784803007350.jpg?_ex=64x64","mediumImageUrl":"http://thumbnail.image.rakuten.co.jp/@0_mall/book/cabinet/7350/9784803007350.jpg?_ex=120x120","largeImageUrl":"http://thumbnail.image.rakuten.co.jp/@0_mall/book/cabinet/7350/9784803007350.jpg?_ex=200x200","chirayomiUrl":"","availability":"1","postageFlag":0,"limitedFlag":0,"reviewCount":0,"reviewAverage":"0.0","booksGenreId":"001004008008"},{"title":"耳の傾け方","titleKana":"ミミ ノ カタムケカタ","subTitle":"こころの臨床家を目指す人たちへ","subTitleKana":"ココロ ノ リンショウカ オ メザス ヒトタチ エ","seriesName":"","seriesNameKana":"","contents":"","author":"松木邦裕","authorKana":"マツキ,クニヒロ","publisherName":"岩崎学術出版社","size":"単行本","isbn":"9784753310913","itemCaption":"本書では、臨床状況や支援場面においてその対象者のこころにかかわるための聴き方、こころを支援する職業での専門的な聴き方を著した。それは同時に基礎技術でもあり、その援助が実効力を持つには、対象者のこころの苦痛・苦悩を適切に聴き取り、それに基づいてより深くより的確に理解することがその前提となる。","salesDate":"2015年06月","itemPrice":2916,"listPrice":0,"discountRate":0,"discountPrice":0,"itemUrl":"http://books.rakuten.co.jp/rb/13270923/","affiliateUrl":"","smallImageUrl":"http://thumbnail.image.rakuten.co.jp/@0_mall/book/cabinet/0913/9784753310913.jpg?_ex=64x64","mediumImageUrl":"http://thumbnail.image.rakuten.co.jp/@0_mall/book/cabinet/0913/9784753310913.jpg?_ex=120x120","largeImageUrl":"http://thumbnail.image.rakuten.co.jp/@0_mall/book/cabinet/0913/9784753310913.jpg?_ex=200x200","chirayomiUrl":"","availability":"1","postageFlag":1,"limitedFlag":0,"reviewCount":0,"reviewAverage":"0.0","booksGenreId":"001008003001"},{"title":"こころを育てるおはなし101","titleKana":"ココロ オ ソダテル オハナシ ヒャク イチ","subTitle":"","subTitleKana":"","seriesName":"","seriesNameKana":"","contents":"","author":"秋田喜代美","authorKana":"アキタ,キヨミ","publisherName":"高橋書店","size":"単行本","isbn":"9784471103460","itemCaption":"はじめての読み聞かせにも最適！親子で楽しむ７つの気持ち＆発育にあわせた４章構成。","salesDate":"2015年06月","itemPrice":1836,"listPrice":0,"discountRate":0,"discountPrice":0,"itemUrl":"http://books.rakuten.co.jp/rb/13292348/","affiliateUrl":"","smallImageUrl":"http://thumbnail.image.rakuten.co.jp/@0_mall/book/cabinet/3460/9784471103460.jpg?_ex=64x64","mediumImageUrl":"http://thumbnail.image.rakuten.co.jp/@0_mall/book/cabinet/3460/9784471103460.jpg?_ex=120x120","largeImageUrl":"http://thumbnail.image.rakuten.co.jp/@0_mall/book/cabinet/3460/9784471103460.jpg?_ex=200x200","chirayomiUrl":"","availability":"1","postageFlag":1,"limitedFlag":0,"reviewCount":0,"reviewAverage":"0.0","booksGenreId":"001008022007/001008022008"},{"title":"『歎異抄』後序のこころ","titleKana":"タンニショウ コウジョ ノ ココロ","subTitle":"","subTitleKana":"","seriesName":"","seriesNameKana":"","contents":"","author":"梯実円/松田正典","authorKana":"カケハシ,ジツエン/マツダ,マサノリ","publisherName":"自照社出版","size":"単行本","isbn":"9784865660104","itemCaption":"信心とは、念仏とは、救いとは何か。『歎異抄』後序の親鸞聖人のお言葉より、他力真宗の正意、“信心正因・念仏往生”のみ教えを味わう。梯實圓和上最後の夏期講座を活字化。","salesDate":"2015年06月","itemPrice":1080,"listPrice":0,"discountRate":0,"discountPrice":0,"itemUrl":"http://books.rakuten.co.jp/rb/13294224/","affiliateUrl":"","smallImageUrl":"http://thumbnail.image.rakuten.co.jp/@0_mall/book/cabinet/0104/9784865660104.jpg?_ex=64x64","mediumImageUrl":"http://thumbnail.image.rakuten.co.jp/@0_mall/book/cabinet/0104/9784865660104.jpg?_ex=120x120","largeImageUrl":"http://thumbnail.image.rakuten.co.jp/@0_mall/book/cabinet/0104/9784865660104.jpg?_ex=200x200","chirayomiUrl":"","availability":"6","postageFlag":0,"limitedFlag":0,"reviewCount":0,"reviewAverage":"0.0","booksGenreId":"001008004003"},{"title":"そだちの科学（24号）","titleKana":"ソダチ ノ カガク","subTitle":"こころの科学","subTitleKana":"ココロ ノ カガク","seriesName":"","seriesNameKana":"","contents":"特集：発達障害と発達論的理解","author":"滝川一広/小林隆児","authorKana":"タキカワ,カズヒロ/コバヤシ,リュウジ","publisherName":"日本評論社","size":"ムックその他","isbn":"9784535907249","itemCaption":"","salesDate":"2015年04月","itemPrice":1533,"listPrice":0,"discountRate":0,"discountPrice":0,"itemUrl":"http://books.rakuten.co.jp/rb/13205898/","affiliateUrl":"","smallImageUrl":"http://thumbnail.image.rakuten.co.jp/@0_mall/book/cabinet/7249/9784535907249.jpg?_ex=64x64","mediumImageUrl":"http://thumbnail.image.rakuten.co.jp/@0_mall/book/cabinet/7249/9784535907249.jpg?_ex=120x120","largeImageUrl":"http://thumbnail.image.rakuten.co.jp/@0_mall/book/cabinet/7249/9784535907249.jpg?_ex=200x200","chirayomiUrl":"","availability":"1","postageFlag":1,"limitedFlag":0,"reviewCount":0,"reviewAverage":"0.0","booksGenreId":"001010010001/001012009002"},{"title":"和食の散歩道","titleKana":"ワショク ノ サンポミチ","subTitle":"見つけよう日本人のこころ","subTitleKana":"ミツケヨウ ニホンジン ノ ココロ","seriesName":"","seriesNameKana":"","contents":"","author":"京都府立大学","authorKana":"キョウト フリツ ダイガク","publisherName":"久美","size":"単行本","isbn":"9784861892561","itemCaption":"","salesDate":"2015年05月","itemPrice":1620,"listPrice":0,"discountRate":0,"discountPrice":0,"itemUrl":"http://books.rakuten.co.jp/rb/13235303/","affiliateUrl":"","smallImageUrl":"http://thumbnail.image.rakuten.co.jp/@0_mall/book/cabinet/2561/9784861892561.jpg?_ex=64x64","mediumImageUrl":"http://thumbnail.image.rakuten.co.jp/@0_mall/book/cabinet/2561/9784861892561.jpg?_ex=120x120","largeImageUrl":"http://thumbnail.image.rakuten.co.jp/@0_mall/book/cabinet/2561/9784861892561.jpg?_ex=200x200","chirayomiUrl":"","availability":"1","postageFlag":1,"limitedFlag":0,"reviewCount":0,"reviewAverage":"0.0","booksGenreId":"001010011001"},{"title":"犬と笑う生活","titleKana":"イヌ ト ワラウ セイカツ","subTitle":"ワンコのこころまるわかり！","subTitleKana":"ワンコ ノ ココロ マルワカリ","seriesName":"","seriesNameKana":"","contents":"","author":"あらいのりこ/藤井仁美","authorKana":"アライ,ノリコ/フジイ,ヒトミ","publisherName":"永岡書店","size":"単行本","isbn":"9784522433348","itemCaption":"","salesDate":"2015年05月","itemPrice":1188,"listPrice":0,"discountRate":0,"discountPrice":0,"itemUrl":"http://books.rakuten.co.jp/rb/13250774/","affiliateUrl":"","smallImageUrl":"http://thumbnail.image.rakuten.co.jp/@0_mall/book/cabinet/3348/9784522433348.jpg?_ex=64x64","mediumImageUrl":"http://thumbnail.image.rakuten.co.jp/@0_mall/book/cabinet/3348/9784522433348.jpg?_ex=120x120","largeImageUrl":"http://thumbnail.image.rakuten.co.jp/@0_mall/book/cabinet/3348/9784522433348.jpg?_ex=200x200","chirayomiUrl":"","availability":"1","postageFlag":0,"limitedFlag":0,"reviewCount":0,"reviewAverage":"0.0","booksGenreId":"001010003001"},{"title":"浄土から届く真実の教え","titleKana":"ジョウド カラ トドク シンジツ ノ オシエ","subTitle":"『教行証文類』のこころ","subTitleKana":"キョウギョウショウ モンルイ ノ ココロ","seriesName":"","seriesNameKana":"","contents":"","author":"梯実円","authorKana":"カケハシ,ジツエン","publisherName":"自照社出版","size":"単行本","isbn":"9784865660111","itemCaption":"『教行証文類』のご撰述の意図、さらには、如来の本願によって浄土に生まれ往く姿と「自他一如」「生死一如」の慈悲の境地を語り尽くす。生涯をかけて親鸞聖人の教えと共に生きた、自らの信心の有り様を語る、ご往生半年前の渾身の報恩講法話。","salesDate":"2015年05月","itemPrice":1080,"listPrice":0,"discountRate":0,"discountPrice":0,"itemUrl":"http://books.rakuten.co.jp/rb/13251876/","affiliateUrl":"","smallImageUrl":"http://thumbnail.image.rakuten.co.jp/@0_mall/book/cabinet/0111/9784865660111.jpg?_ex=64x64","mediumImageUrl":"http://thumbnail.image.rakuten.co.jp/@0_mall/book/cabinet/0111/9784865660111.jpg?_ex=120x120","largeImageUrl":"http://thumbnail.image.rakuten.co.jp/@0_mall/book/cabinet/0111/9784865660111.jpg?_ex=200x200","chirayomiUrl":"","availability":"1","postageFlag":0,"limitedFlag":0,"reviewCount":0,"reviewAverage":"0.0","booksGenreId":"001008004003"},{"title":"へそ曲がりのための名言講座","titleKana":"ヘソマガリ ノ タメノ メイゲン コウザ","subTitle":"これで、こころは楽になる","subTitleKana":"コレデ ココロ ワ ラク ニ ナル","seriesName":"徳間文庫カレッジ","seriesNameKana":"トクマ ブンコ カレッジ","contents":"","author":"ひろさちや","authorKana":"ヒロ,サチヤ","publisherName":"徳間書店","size":"文庫","isbn":"9784199070310","itemCaption":"サルトルから寅さんまで人生の先達はみ〜んな“非まじめ”だった！ゆるやかに、天邪鬼に生きよう。すぐに使える、究極の人生訓！","salesDate":"2015年05月01日","itemPrice":972,"listPrice":0,"discountRate":0,"discountPrice":0,"itemUrl":"http://books.rakuten.co.jp/rb/13188927/","affiliateUrl":"","smallImageUrl":"http://thumbnail.image.rakuten.co.jp/@0_mall/book/cabinet/0310/9784199070310.jpg?_ex=64x64","mediumImageUrl":"http://thumbnail.image.rakuten.co.jp/@0_mall/book/cabinet/0310/9784199070310.jpg?_ex=120x120","largeImageUrl":"http://thumbnail.image.rakuten.co.jp/@0_mall/book/cabinet/0310/9784199070310.jpg?_ex=200x200","chirayomiUrl":"","availability":"1","postageFlag":0,"limitedFlag":0,"reviewCount":0,"reviewAverage":"0.0","booksGenreId":"001008003002/001008004001/001010013003"},{"title":"からだの痛みはこころのサイン","titleKana":"カラダ ノ イタミ ワ ココロ ノ サイン","subTitle":"やさしくいたわるセルフケアブック","subTitleKana":"ヤサシク イタワル セルフ ケア ブック","seriesName":"","seriesNameKana":"","contents":"","author":"ドリーン・L．ヴァーチュ/ロバート・リーブス","authorKana":"ヴァーチュ,ドリーン・L./リーブス,ロバート","publisherName":"JMA・アソシエイツステップワークス事業","size":"単行本","isbn":"9784904665824","itemCaption":"自然療法＆セルフヒーリング。からだからのメッセージを解き明かし、本当の健やかさを手に入れる。その痛み、癒しましょう。心地よさで満ちた最高の自分になる方法。","salesDate":"2015年05月","itemPrice":2160,"listPrice":0,"discountRate":0,"discountPrice":0,"itemUrl":"http://books.rakuten.co.jp/rb/13246391/","affiliateUrl":"","smallImageUrl":"http://thumbnail.image.rakuten.co.jp/@0_mall/book/cabinet/5824/9784904665824.jpg?_ex=64x64","mediumImageUrl":"http://thumbnail.image.rakuten.co.jp/@0_mall/book/cabinet/5824/9784904665824.jpg?_ex=120x120","largeImageUrl":"http://thumbnail.image.rakuten.co.jp/@0_mall/book/cabinet/5824/9784904665824.jpg?_ex=200x200","chirayomiUrl":"","availability":"1","postageFlag":1,"limitedFlag":0,"reviewCount":0,"reviewAverage":"0.0","booksGenreId":"001010010001/001012009002"},{"title":"ちいさい・おおきい・よわい・つよい（no．105）","titleKana":"チイサイ オオキイ ヨワイ ツヨイ","subTitle":"こども・からだ・こころBOOK","subTitleKana":"コドモ カラダ ココロ ブック","seriesName":"","seriesNameKana":"","contents":"幼い子に「死」を語るとき","author":"桜井智恵子/毛利子来","authorKana":"サクライ,チエコ/モウリ,タネキ","publisherName":"ジャパンマシニスト社","size":"単行本","isbn":"9784880499055","itemCaption":"","salesDate":"2015年04月","itemPrice":1296,"listPrice":0,"discountRate":0,"discountPrice":0,"itemUrl":"http://books.rakuten.co.jp/rb/13218226/","affiliateUrl":"","smallImageUrl":"http://thumbnail.image.rakuten.co.jp/@0_mall/book/cabinet/9055/9784880499055.jpg?_ex=64x64","mediumImageUrl":"http://thumbnail.image.rakuten.co.jp/@0_mall/book/cabinet/9055/9784880499055.jpg?_ex=120x120","largeImageUrl":"http://thumbnail.image.rakuten.co.jp/@0_mall/book/cabinet/9055/9784880499055.jpg?_ex=200x200","chirayomiUrl":"","availability":"1","postageFlag":0,"limitedFlag":0,"reviewCount":0,"reviewAverage":"0.0","booksGenreId":"001010002001"},{"title":"誤解だらけの“イヌの気持ち”","titleKana":"ゴカイダラケ ノ イヌ ノ キモチ","subTitle":"『イヌのこころ』を科学する","subTitleKana":"イヌ ノ ココロ オ カガクスル","seriesName":"","seriesNameKana":"","contents":"","author":"藤田和生","authorKana":"フジタ,カズオ","publisherName":"財界展望新社","size":"単行本","isbn":"9784879340252","itemCaption":"藤田教授が率いる京都大学心理学研究室から誕生した、本当の“イヌのこころ”がわかる本。イヌと飼い主の関係をもっとハッピーに変えるーそのためのヒント。","salesDate":"2015年04月","itemPrice":1620,"listPrice":0,"discountRate":0,"discountPrice":0,"itemUrl":"http://books.rakuten.co.jp/rb/13185048/","affiliateUrl":"","smallImageUrl":"http://thumbnail.image.rakuten.co.jp/@0_mall/book/cabinet/0252/9784879340252.jpg?_ex=64x64","mediumImageUrl":"http://thumbnail.image.rakuten.co.jp/@0_mall/book/cabinet/0252/9784879340252.jpg?_ex=120x120","largeImageUrl":"http://thumbnail.image.rakuten.co.jp/@0_mall/book/cabinet/0252/9784879340252.jpg?_ex=200x200","chirayomiUrl":"","availability":"1","postageFlag":1,"limitedFlag":0,"reviewCount":0,"reviewAverage":"0.0","booksGenreId":"001010003001"},{"title":"こころ（vol．24（2015））","titleKana":"ココロ","subTitle":"","subTitleKana":"","seriesName":"","seriesNameKana":"","contents":"インタビュー安野光雅わたしの戦後七十年","author":"","authorKana":"","publisherName":"平凡社","size":"単行本","isbn":"9784582380248","itemCaption":"","salesDate":"2015年04月13日","itemPrice":864,"listPrice":0,"discountRate":0,"discountPrice":0,"itemUrl":"http://books.rakuten.co.jp/rb/13158825/","affiliateUrl":"","smallImageUrl":"http://thumbnail.image.rakuten.co.jp/@0_mall/book/cabinet/0248/9784582380248.jpg?_ex=64x64","mediumImageUrl":"http://thumbnail.image.rakuten.co.jp/@0_mall/book/cabinet/0248/9784582380248.jpg?_ex=120x120","largeImageUrl":"http://thumbnail.image.rakuten.co.jp/@0_mall/book/cabinet/0248/9784582380248.jpg?_ex=200x200","chirayomiUrl":"","availability":"1","postageFlag":0,"limitedFlag":0,"reviewCount":0,"reviewAverage":"0.0","booksGenreId":"001008022008"}],"GenreInformation":[]}
